Regression Methods Project
…
Figure 4: Violin plot of the probability of landing on the same side by starting side.

Both distributions are centered around 0.508, with comparable spread, suggesting no notable systematic difference between starting heads-up or tails-up. Some outliers in each group do appear, which may reflect unique participant behaviors or chance fluctuations.

# A tibble: 21 × 2
# Groups:   starting_side [2]
   starting_side probability
   <chr>               <dbl>
 1 Heads Up            0.446
 2 Heads Up            0.570
 3 Tails Up            0.441
 4 Tails Up            0.602
 5 Tails Up            0.575
 6 Heads Up            0.615
 7 Tails Up            0.593
 8 Heads Up            0.604
 9 Tails Up            0.635
10 Heads Up            0.585
# ℹ 11 more rows
…
